5 Day 5: Learning goals – Spatial Statistics with R
…
curl::curl_download(
  "https://github.com/paleolimbot/geoarrow-data/releases/download/v0.0.1/nshn_water_line.gpkg",
  "nshn_water_line.gpkg"
)

library(sf)

(w <- read_sf("nshn_water_line.gpkg"))
# Simple feature collection with 483268 features and 33 fields
# Geometry type: MULTILINESTRING
# Dimension:     XYZ
# Bounding box:  xmin: 216000 ymin: 4790000 xmax: 782000 ymax: 5240000
# z_range:       zmin: -41.7 zmax: 530
# Projected CRS: NAD83 / UTM zone 20N
# # A tibble: 483,268 × 34
#   OBJECTID FEAT_CODE ZVALUE PLANLENGTH  MINZ  MAXZ LINE_CLASS
#      <dbl> <chr>      <dbl>      <dbl> <dbl> <dbl>      <int>
# 1        2 WACO20       0.2      280.    0.2   0.2          3
# 2        3 WACO20       0.2      185.    0.2   0.2          3
# 3        4 WACO20       0.2      179.    0.2   0.2          3
# 4        5 WACO20       0.2     1779.    0.2   0.2          3
# 5        6 WACO20       0.2      470.    0.2   0.2          3
# 6        7 WACO20       0.2       57.7   0.2   0.2          3
# # ℹ 483,262 more rows
# # ℹ 27 more variables: FLOWDIR <int>, LEVELPRIOR <int>,
# #   LAKEID_1 <chr>, LAKENAME_1 <chr>, LAKEID_2 <chr>,
# #   LAKENAME_2 <chr>, RIVID_1 <chr>, RIVNAME_1 <chr>,
# #   RIVID_2 <chr>, RIVNAME_2 <chr>, MISCID_1 <chr>,
# #   MISCNAME_1 <chr>, MISCID_2 <chr>, MISCNAME_2 <chr>,
# #   MISCID_3 <chr>, MISCNAME_3 <chr>, MISCID_4 <chr>, …

From https://github.com/microsoft/USBuildingFootprints downloaded Maine.geojson.zip, and read with

(m = read_sf("/vsizip/Maine.geojson.zip")) # /vsizip: indicates data source is a zipped file
# Simple feature collection with 758999 features and 2 fields
# Geometry type: POLYGON
# Dimension:     XY
# Bounding box:  xmin: -71.1 ymin: 43 xmax: -67 ymax: 47.5
# Geodetic CRS:  WGS 84
# # A tibble: 758,999 × 3
#   release capture_dates_range                               geometry
#     <int> <chr>                                        <POLYGON [°]>
# 1       1 ""                  ((-67 44.9, -67 44.9, -67 44.9, -67 4…
# 2       1 ""                  ((-67 44.9, -67 44.9, -67 44.9, -67 4…
# 3       1 ""                  ((-67 44.9, -67 44.9, -67 44.9, -67 4…
# 4       1 ""                  ((-67 44.9, -67 44.9, -67 44.9, -67 4…
# 5       1 ""                  ((-67 44.9, -67 44.9, -67 44.9, -67 4…
# 6       1 ""                  ((-67 44.9, -67 44.9, -67 44.9, -67 4…
# # ℹ 758,993 more rows
…
